<svg width="29" height="29" viewBox="0 0 29 29" fill="none" xmlns="http://www.w3.org/2000/svg">
<path d="M13.7453 17.4608C14.1615 17.8769 14.8362 17.8769 15.2523 17.4608L17.981 14.7322C18.3656 14.3475 18.3656 13.7239 17.981 13.3393C17.5964 12.9547 16.9728 12.9547 16.5881 13.3393L15.4274 14.5V8.92856C15.4274 8.41573 15.0117 8 14.4989 8C13.986 8 13.5703 8.41573 13.5703 8.92856V14.5L12.4096 13.3393C12.025 12.9547 11.4014 12.9547 11.0167 13.3393C10.6321 13.7239 10.6321 14.3475 11.0167 14.7322L13.7453 17.4608Z" fill="#324066"/>
<path d="M8 20.0714C8 19.5586 8.41573 19.1428 8.92856 19.1428H20.0714C20.5843 19.1428 21 19.5586 21 20.0714C21 20.5842 20.5843 21 20.0714 21H8.92856C8.41573 21 8 20.5842 8 20.0714Z" fill="#324066"/>
<circle cx="14.5" cy="14.5" r="13.5" stroke="#324066" stroke-width="2"/>
</svg>
